<svg xmlns="http://www.w3.org/2000/svg" width="32.114" height="32.291" viewBox="0 0 32.114 32.291">
  <path id="blogger-big-logo-svgrepo-com" d="M32.9,14.306a2.484,2.484,0,0,0-.581-1.755,2.255,2.255,0,0,0-1.742-.681l-1.853,0c-.768,0-1.09-.915-1.53-2.422q-.047-.163-.1-.325a16.135,16.135,0,0,0-3.534-6.368A7.66,7.66,0,0,0,18.077,0H11.193A10.416,10.416,0,0,0,.793,10.409V21.9a10.407,10.407,0,0,0,10.4,10.389H22.5a10.449,10.449,0,0,0,10.4-10.39ZM9.7,8.14h6.829a2.227,2.227,0,0,1,0,4.454H9.7a2.227,2.227,0,1,1,0-4.454ZM23.579,23.853H9.7a2.227,2.227,0,1,1,0-4.454H23.579a2.227,2.227,0,0,1,0,4.454Z" transform="translate(-0.793)" fill="#fff"/>
</svg>
